<svg xmlns="http://www.w3.org/2000/svg"  viewBox="0 0 640 480">
  <g fill-rule="evenodd" stroke-width="1pt">
    <path fill="#f41408" d="M0 0h640v480H0z"/>
    <path fill="#21873b" d="M0 320h640v160H0z"/>
    <path d="M0 0h640v160H0z"/>
    <path fill="#f31509" d="M220.5 141c22.3-49.2 84.5-72.8 138.8-52.5a98.4 98.4 0 0158 52.5H220.5zm-26 6.4a332.3 332.3 0 01-52.4-7.8c-4.1-1.3-4.3-3.6-3.8-5.3.5-1.7 3.1-3.6 6.2-3 5.6 1.4 28.8 7 50 16.1zm124.6-85.9c-4.2-21-5.2-44-4.8-48C314.7 9.6 317 9 319 9s4.7 1.8 4.7 4.7c0 5.3-.1 27-4.6 48zm11.6.5a249 249 0 01-.3-48.2c.8-3.9 3.2-4.4 5.1-4.2 2 .1 4.5 2.1 4.2 5-.5 5.3-2.6 26.9-9 47.4zm10.4 1.3c-.2-21.3 3-44.3 4.1-48 1.1-3.9 3.6-4.2 5.5-3.9 2 .3 4.3 2.5 3.8 5.3-1 5.3-5.2 26.6-13.4 46.6zm11 2.2c1.8-21.2 7.3-43.8 8.8-47.5 1.5-3.7 4-3.8 5.8-3.4 2 .5 4 2.8 3.3 5.6-1.6 5.1-7.7 26-17.8 45.3zm10.9 3.2c3.9-21 11.5-43.1 13.3-46.7 1.9-3.5 4.3-3.5 6.2-2.9 1.8.6 3.7 3.2 2.7 5.8A264 264 0 01363 68.7zm10.1 3.8c5.8-20.7 15.5-42 17.7-45.5 2.2-3.4 4.6-3.1 6.4-2.3 1.8.7 3.4 3.4 2.1 6-2.5 4.8-12.5 24.4-26.2 41.8zm10 4.7a262.9 262.9 0 0122-43.9c2.4-3.2 4.9-2.7 6.6-1.8a4.4 4.4 0 011.5 6.1c-3 4.6-14.9 23.4-30.1 39.6zm9.4 5.5c9.7-19.4 23.3-39 26.1-42 2.8-3 5.2-2.3 6.8-1.3a4.4 4.4 0 011 6.2c-3.5 4.4-17.2 22.1-34 37zm8.8 6.2c11.6-18.6 27-37 30.1-39.7 3-2.8 5.4-2 6.9-.8a4.3 4.3 0 01.3 6.2c-3.8 4.1-19.1 20.7-37.3 34.3zm8.3 6.9a284 284 0 0133.8-37.2c3.3-2.5 5.5-1.5 6.9-.3a4.3 4.3 0 01-.3 6.3c-4.1 3.8-21 19.1-40.4 31.2zm7.6 7.5A278.4 278.4 0 01454.4 69c3.6-2.3 5.7-1.1 7 .3 1.2 1.3 1.5 4.4-1 6.2a306 306 0 01-43.2 27.8zm6.5 7.8A297.1 297.1 0 01464 79.6c3.7-2 5.7-.6 6.8.9 1.2 1.4 1.1 4.5-1.4 6.1-4.8 3-24.3 15.6-45.7 24.5zm5.9 8.3a307 307 0 0143-28.1c4-1.7 5.9-.2 6.9 1.3 1 1.6.6 4.6-2 6a320.8 320.8 0 01-48 20.8zm5.4 9.6a313.4 313.4 0 0145.8-24.4c4.1-1.4 5.8.3 6.6 1.9.9 1.6.3 4.6-2.6 5.8-5.3 2.2-27 11.4-49.8 16.7zm4.2 9.2a320 320 0 0148-20.8c4.2-1 5.7.8 6.4 2.5.6 1.6-.3 4.6-3.2 5.5-5.5 1.9-28 9.3-51.2 12.8zm3.4 9.8a324.5 324.5 0 0149.8-16.9c4.2-.6 5.6 1.2 6.1 3 .5 1.7-.7 4.5-3.7 5.3-5.7 1.3-28.8 7-52.2 8.6zM307.8 62a252.4 252.4 0 01-9.7-47.4c0-3.9 2.3-4.8 4.2-5 2-.1 5 1.5 5.2 4.3.5 5.3 2.6 26.9.4 48.1zm-11 1.3a251 251 0 01-14.3-46.4c-.4-4 1.8-5 3.7-5.3 2-.3 5 1 5.6 3.8a263 263 0 015 47.9zm-11 2.2A259 259 0 01267 20.3c-.8-3.9 1.3-5.1 3.2-5.6 1.9-.4 5 .6 5.9 3.4 1.5 5.1 7.7 26 9.6 47.3zm-10.5 3A264 264 0 01252.5 25c-1.1-3.8.8-5.2 2.6-5.8 1.9-.6 5.1.2 6.2 2.8 2 5 10.2 25.4 14 46.4zM265.2 72a270.4 270.4 0 01-27-41.5c-1.4-3.7.4-5.3 2.2-6 1.8-.8 5-.2 6.4 2.4 2.5 4.8 12.5 24.5 18.4 45.1zm-10.3 5a275.6 275.6 0 01-31-39.2c-1.7-3.5-.1-5.2 1.6-6.1 1.7-.9 5-.6 6.6 1.9 3 4.6 15 23.3 22.8 43.4zm-9.4 5.4A285.2 285.2 0 01211 45.7c-2.1-3.4-.7-5.2 1-6.3 1.5-1 5-1 6.7 1.4 3.4 4.3 17.1 22 26.8 41.5zm-8.7 6a292.2 292.2 0 01-37.9-33.9c-2.4-3.2-1.1-5 .4-6.2a5.5 5.5 0 016.8.8c3.8 4 19.2 20.7 30.7 39.3zm-8.5 7a299 299 0 01-41-30.7c-2.8-3-1.7-5-.3-6.3a5.5 5.5 0 016.9.3c4.2 3.7 21 19 34.4 36.6zm-7.4 7A306.6 306.6 0 01177.2 75c-3-2.8-2.1-4.8-.8-6.2 1.2-1.4 4.5-2.1 6.9-.3a292 292 0 0137.6 34zm-7 8.2a313 313 0 01-46.2-23.8c-3.3-2.5-2.6-4.7-1.5-6.1 1.1-1.5 4.3-2.5 6.9-.9 4.8 3.1 24.3 15.5 40.8 30.8zm-6.3 8.8c-22.2-7-44.9-17.6-48.4-19.9-3.6-2.2-3-4.4-2.1-6s4-2.8 6.8-1.4c5 2.7 25.8 13.5 43.7 27.3zm-5.3 9c-22.8-5.3-46.3-14-50.1-16-3.7-2-3.5-4.2-2.6-5.8.8-1.6 3.7-3.1 6.6-2 5.3 2.3 27 11.4 46.1 23.8zm-4.2 9a328.5 328.5 0 01-51.4-12.2c-4-1.6-3.8-3.9-3.2-5.5.7-1.7 3.5-3.4 6.4-2.5 5.6 1.9 28 9.3 48.2 20.2z"/>
    <path fill="#f31509" d="M194.5 147.4a332.4 332.4 0 01-52.4-7.8c-4.1-1.3-4.3-3.6-3.8-5.3.5-1.7 3.1-3.6 6.2-3 5.6 1.4 28.8 7 50 16.1z"/>
    <path d="M129.4 141.5h381.2v12.6H129.4z"/>
  </g>
</svg>
