<svg xmlns="http://www.w3.org/2000/svg"  viewBox="0 0 640 480">
  <path fill="#fff" d="M81.1 0h362.3v512H81.1z" transform="translate(74.1) scale(.9375)"/>
  <path fill="#d52b1e" d="M-100 0H81.1v512H-100zm543.4 0h181.1v512h-181zm-308 247.4l-14.2 4.8 65.5 57.5c5 14.7-1.7 19-6 26.8l71-9L250 399l14.8-.4-3.3-71 71.2 8.5c-4.4-9.3-8.3-14.2-4.3-29l65.4-54.5-11.4-4.2c-9.4-7.2 4-34.7 6-52.1 0 0-38.1 13.1-40.6 6.2l-9.8-18.7-34.7 38.2c-3.8.9-5.4-.6-6.3-3.8l16-79.8-25.4 14.3c-2.1 1-4.2.2-5.6-2.3l-24.5-49-25.2 50.9c-1.9 1.8-3.8 2-5.4.8l-24.2-13.6 14.6 79.1c-1.2 3.2-4 4-7.2 2.3l-33.3-37.7c-4.3 7-7.2 18.3-13 20.9-5.7 2.4-25-4.8-37.9-7.6 4.4 15.9 18.2 42.3 9.5 51z" transform="translate(74.1) scale(.9375)"/>
</svg>
