<svg xmlns="http://www.w3.org/2000/svg"  viewBox="0 0 640 480">
  <path id="path617" fill="#006" stroke-width="1.3" d="M0 0h640v480H0z"/>
  <path id="path625" fill="#fff" fill-rule="evenodd" stroke-width="1.3" d="M299.8 392.5l-43.7 3.8 6 43.4L232 408l-30.1 31.7 6-43.4-43.7-3.8 37.7-22.3-24.3-36.5 41 15.5 13.4-41.7 13.5 41.7 41-15.5-24.3 36.5m224.4 62.3L476 416.7l17.8 6.7 5.8-18.1 5.8 18.1 17.8-6.7-10.5 15.8 16.4 9.7-19 1.7 2.6 18.9-13-13.9-13.2 13.9 2.6-18.9-19-1.6m16.4-291.9L476 134.6l17.8 6.7 5.8-18.1 5.8 18.1 17.8-6.7-10.5 15.8 16.4 9.8-19 1.6 2.6 18.9-13-13.8-13.2 13.7 2.6-18.8-19-1.6M380.8 265l-10.5-15.8 17.8 6.7 5.8-18.1 5.9 18.1 17.8-6.7L407 265l16.4 9.7-19 1.7 2.7 18.9-13.2-13.9-13 13.9 2.5-18.9-19-1.6m216.3-38L570 221l17.8 6.7 5.8-18.1 5.9 18.1 17.8-6.7-10.5 15.8 16.3 9.7-19 1.7 2.6 18.8-13-13.8-13.2 13.8 2.6-18.8-19-1.7M542 320l-10.3 6.5 2.9-11.9-9.3-7.8 12.1-1 4.6-11.2 4.7 11.3 12.1.9-9.3 7.8 2.9 11.9"/>
  <path id="path969" fill="#006" stroke-width=".5" d="M0 0h320v240H0z"/>
  <path id="path971" fill="#fff" stroke-width=".5" d="M37.5 0l122 90.5L281 0h39v31l-120 89.5 120 89V240h-40l-120-89.5L40.5 240H0v-30l119.5-89L0 32V0z"/>
  <path id="path973" fill="#c8102e" stroke-width=".5" d="M212 140.5L320 220v20l-135.5-99.5zm-92 10l3 17.5-96 72H0zM320 0v1.5l-124.5 94 1-22L295 0zM0 0l119.5 88h-30L0 21z"/>
  <path id="path975" fill="#fff" stroke-width=".5" d="M120.5 0v240h80V0zM0 80v80h320V80z"/>
  <path id="path977" fill="#c8102e" stroke-width=".5" d="M0 96.5v48h320v-48zM136.5 0v240h48V0z"/>
</svg>
